50  0.0000000E+00 0.00E+00
60  0.0000000E+00 0.00E+00
70  0.0000000E+00 0.00E+00
80  0.0000000E+00 0.00E+00
90  0.0000000E+00 0.00E+00
100  0.0000000E+00 0.00E+00
110  0.0000000E+00 0.00E+00
120  0.0000000E+00 0.00E+00
130  0.0000000E+00 0.00E+00
140  0.0000000E+00 0.00E+00
150  0.0000000E+00 0.00E+00
160  0.0000000E+00 0.00E+00
170  0.0000000E+00 0.00E+00
180  0.0000000E+00 0.00E+00
190  0.0000000E+00 0.00E+00
200  0.0000000E+00 0.00E+00
210  0.0000000E+00 0.00E+00
220  0.0000000E+00 0.00E+00
230  0.0000000E+00 0.00E+00
240  0.0000000E+00 0.00E+00
250  0.0000000E+00 0.00E+00
260  0.0000000E+00 0.00E+00
270  0.0000000E+00 0.00E+00
280  0.0000000E+00 0.00E+00
290  0.0000000E+00 0.00E+00
300  0.0000000E+00 0.00E+00
310  0.0000000E+00 0.00E+00
320  0.0000000E+00 0.00E+00
330  0.0000000E+00 0.00E+00
340  0.0000000E+00 0.00E+00
350  1.3166220E-03 9.96E-07
360  7.5211716E-03 5.51E-06
370  1.7158341E-02 1.23E-05
380  2.8696651E-02 2.00E-05
390  4.1061431E-02 2.79E-05
400  5.3531395E-02 3.58E-05
410  6.5646584E-02 4.33E-05
420  7.7120321E-02 5.02E-05
430  8.7793590E-02 5.65E-05
440  9.7583085E-02 6.21E-05
450  1.0646893E-01 6.71E-05
460  1.1446018E-01 7.16E-05
470  1.2159175E-01 7.56E-05
480  1.2789411E-01 7.87E-05
490  1.3345253E-01 8.16E-05
500  1.3831372E-01 8.41E-05
510  1.4253273E-01 8.60E-05
520  1.4616816E-01 8.76E-05
530  1.4927624E-01 8.89E-05
540  1.5189823E-01 9.00E-05
550  1.5408408E-01 9.08E-05
560  1.5588401E-01 9.14E-05
570  1.5733723E-01 9.18E-05
580  1.5847063E-01 9.21E-05
590  1.5932279E-01 9.22E-05
600  1.5991335E-01 9.22E-05
610  1.6028862E-01 9.20E-05
620  1.6046106E-01 9.18E-05
630  1.6045612E-01 9.15E-05
640  1.6029652E-01 9.11E-05
650  1.5999040E-01 9.07E-05
660  1.5955978E-01 9.02E-05
670  1.5901516E-01 8.97E-05
680  1.5838002E-01 8.92E-05
690  1.5765493E-01 8.86E-05
700  1.5685923E-01 8.80E-05
710  1.5599813E-01 8.74E-05
720  1.5507388E-01 8.67E-05
730  1.5409754E-01 8.60E-05
740  1.5308164E-01 8.53E-05
750  1.5202247E-01 8.49E-05
760  1.5095160E-01 8.41E-05
770  1.4984603E-01 8.33E-05
780  1.4871716E-01 8.25E-05
790  1.4756829E-01 8.17E-05
800  1.4639940E-01 8.09E-05
810  1.4522405E-01 8.02E-05
820  1.4403818E-01 7.94E-05
830  1.4284724E-01 7.87E-05
840  1.4164987E-01 7.80E-05
850  1.4044491E-01 7.73E-05
860  1.3924136E-01 7.67E-05
870  1.3805039E-01 7.60E-05
880  1.3686177E-01 7.54E-05
890  1.3566623E-01 7.48E-05
900  1.3448283E-01 7.42E-05
910  1.3330773E-01 7.36E-05
920  1.3212977E-01 7.31E-05
930  1.3096034E-01 7.25E-05
940  1.2979847E-01 7.20E-05
950  1.2864811E-01 7.15E-05
960  1.2751222E-01 7.10E-05
970  1.2638745E-01 7.05E-05
980  1.2527885E-01 7.00E-05
990  1.2417162E-01 6.95E-05
1000  1.2308088E-01 6.91E-05
1010  1.2200579E-01 6.87E-05
1020  1.2093875E-01 6.82E-05
1030  1.1987341E-01 6.78E-05
1040  1.1882718E-01 6.74E-05
1050  1.1779808E-01 6.70E-05
1060  1.1677613E-01 6.67E-05
1070  1.1575936E-01 6.63E-05
1080  1.1475444E-01 6.59E-05
1090  1.1376331E-01 6.56E-05
1100  1.1278678E-01 6.53E-05
1110  1.1182009E-01 6.50E-05
1120  1.1087049E-01 6.46E-05
1130  1.0993035E-01 6.43E-05
1140  1.0899580E-01 6.40E-05
1150  1.0807711E-01 6.38E-05
1160  1.0716566E-01 6.35E-05
1170  1.0627067E-01 6.32E-05
1180  1.0538758E-01 6.29E-05
1190  1.0451493E-01 6.27E-05
1200  1.0365308E-01 6.24E-05
1210  1.0280072E-01 6.22E-05
1220  1.0195907E-01 6.19E-05
1230  1.0112206E-01 6.17E-05
1240  1.0030361E-01 6.15E-05
1250  9.9491985E-02 6.12E-05
1260  9.8688060E-02 6.10E-05
1270  9.7893958E-02 6.08E-05
1280  9.7117416E-02 6.06E-05
1290  9.6342743E-02 6.04E-05
1300  9.5579090E-02 6.01E-05
1310  9.4826955E-02 5.99E-05
1320  9.4080057E-02 5.97E-05
1330  9.3351267E-02 5.95E-05
1340  9.2630267E-02 5.94E-05
1350  9.1911948E-02 5.92E-05
1360  9.1206609E-02 5.90E-05
1370  9.0513386E-02 5.88E-05
1380  8.9829335E-02 5.86E-05
1390  8.9150040E-02 5.84E-05
1400  8.8477102E-02 5.83E-05
1410  8.7814630E-02 5.81E-05
1420  8.7165150E-02 5.79E-05
1430  8.6522408E-02 5.78E-05
1440  8.5875495E-02 5.76E-05
1450  8.5246183E-02 5.74E-05
1460  8.4624823E-02 5.72E-05
1470  8.4008844E-02 5.71E-05
1480  8.3400740E-02 5.69E-05
1490  8.2793109E-02 5.67E-05
1500  8.2202669E-02 5.65E-05
1510  8.1616342E-02 5.64E-05
1520  8.1036170E-02 5.62E-05
1530  8.0461883E-02 5.61E-05
1540  7.9896766E-02 5.59E-05
1550  7.9339416E-02 5.58E-05
1560  7.8786904E-02 5.56E-05
1570  7.8239487E-02 5.55E-05
1580  7.7701984E-02 5.53E-05
1590  7.7166433E-02 5.51E-05
1600  7.6635476E-02 5.50E-05
1610  7.6112894E-02 5.48E-05
1620  7.5595264E-02 5.46E-05
1630  7.5087631E-02 5.45E-05
1640  7.4580597E-02 5.43E-05
1650  7.4083575E-02 5.42E-05
1660  7.3590199E-02 5.40E-05
1670  7.3100174E-02 5.38E-05
1680  7.2619156E-02 5.37E-05
1690  7.2140390E-02 5.36E-05
1700  7.1673428E-02 5.34E-05
1710  7.1205095E-02 5.33E-05
1720  7.0743550E-02 5.31E-05
1730  7.0288158E-02 5.30E-05
1740  6.9838026E-02 5.28E-05
1750  6.9393633E-02 5.26E-05
1760  6.8953874E-02 5.25E-05
1770  6.8513646E-02 5.24E-05
1780  6.8081425E-02 5.22E-05
1790  6.7654516E-02 5.21E-05
1800  6.7233880E-02 5.19E-05
1810  6.6816184E-02 5.17E-05
1820  6.6399858E-02 5.16E-05
1830  6.5984659E-02 5.15E-05
1840  6.5579128E-02 5.13E-05
1850  6.5181355E-02 5.12E-05
1860  6.4785271E-02 5.10E-05
1870  6.4394258E-02 5.09E-05
1880  6.4004659E-02 5.07E-05
1890  6.3618111E-02 5.05E-05
1900  6.3231565E-02 5.04E-05
1910  6.2856247E-02 5.02E-05
1920  6.2479517E-02 5.01E-05
1930  6.2108620E-02 5.00E-05
1940  6.1740922E-02 4.98E-05
1950  6.1375147E-02 4.97E-05
1960  6.1018435E-02 4.95E-05
1970  6.0664227E-02 4.93E-05
1980  6.0311314E-02 4.92E-05
1990  5.9962063E-02 4.91E-05
2000  5.9618368E-02 4.89E-05
2010  5.9276213E-02 4.87E-05
2020  5.8940550E-02 4.86E-05
2030  5.8599756E-02 4.84E-05
2040  5.8272947E-02 4.83E-05
2050  5.7942699E-02 4.81E-05
2060  5.7615648E-02 4.80E-05
2070  5.7291698E-02 4.78E-05
2080  5.6970827E-02 4.77E-05
2090  5.6651431E-02 4.76E-05
2100  5.6339706E-02 4.74E-05
2110  5.6031871E-02 4.73E-05
2120  5.5721878E-02 4.72E-05
2130  5.5414784E-02 4.70E-05
2140  5.5115873E-02 4.69E-05
2150  5.4813152E-02 4.68E-05
2160  5.4514112E-02 4.66E-05
2170  5.4219809E-02 4.65E-05
2180  5.3926961E-02 4.63E-05
2190  5.3640150E-02 4.62E-05
2200  5.3351414E-02 4.61E-05
2210  5.3069618E-02 4.60E-05
2220  5.2790887E-02 4.58E-05
2230  5.2511885E-02 4.57E-05
2240  5.2234071E-02 4.56E-05
2250  5.1958722E-02 4.54E-05
2260  5.1690352E-02 4.53E-05
2270  5.1416983E-02 4.52E-05
2280  5.1148024E-02 4.51E-05
2290  5.0883822E-02 4.49E-05
2300  5.0622267E-02 4.48E-05
2310  5.0361594E-02 4.47E-05
2320  5.0104618E-02 4.45E-05
2330  4.9849886E-02 4.44E-05
2340  4.9594946E-02 4.43E-05
2350  4.9342473E-02 4.42E-05
2360  4.9093311E-02 4.40E-05
2370  4.8847562E-02 4.39E-05
2380  4.8600378E-02 4.38E-05
2390  4.8359261E-02 4.37E-05
2400  4.8121116E-02 4.35E-05
2410  4.7882835E-02 4.34E-05
2420  4.7646991E-02 4.33E-05
2430  4.7415994E-02 4.32E-05
2440  4.7183990E-02 4.31E-05
2450  4.6954203E-02 4.30E-05
2460  4.6727273E-02 4.29E-05
2470  4.6501228E-02 4.27E-05
2480  4.6276894E-02 4.26E-05
2490  4.6055951E-02 4.25E-05
2500  4.5836150E-02 4.24E-05
2510  4.5613635E-02 4.23E-05
2520  4.5399707E-02 4.22E-05
2530  4.5183885E-02 4.21E-05
2540  4.4969265E-02 4.20E-05
2550  4.4758897E-02 4.19E-05
2560  4.4547493E-02 4.17E-05
2570  4.4339453E-02 4.16E-05
2580  4.4131204E-02 4.15E-05
2590  4.3925369E-02 4.14E-05
2600  4.3723565E-02 4.13E-05
2610  4.3520601E-02 4.12E-05
2620  4.3318398E-02 4.11E-05
2630  4.3118105E-02 4.09E-05
2640  4.2921363E-02 4.08E-05
2650  4.2725915E-02 4.07E-05
2660  4.2528555E-02 4.06E-05
2670  4.2333220E-02 4.05E-05
2680  4.2139426E-02 4.04E-05
2690  4.1945108E-02 4.03E-05
2700  4.1752594E-02 4.01E-05
2710  4.1564303E-02 4.00E-05
2720  4.1375564E-02 3.99E-05
2730  4.1189824E-02 3.98E-05
2740  4.1006260E-02 3.97E-05
2750  4.0823431E-02 3.96E-05
2760  4.0641722E-02 3.95E-05
2770  4.0462515E-02 3.94E-05
2780  4.0285605E-02 3.93E-05
2790  4.0110003E-02 3.92E-05
2800  3.9935289E-02 3.91E-05
2810  3.9760740E-02 3.90E-05
2820  3.9587345E-02 3.89E-05
2830  3.9417855E-02 3.88E-05
2840  3.9248123E-02 3.87E-05
2850  3.9078731E-02 3.86E-05
2860  3.8910498E-02 3.85E-05
2870  3.8745752E-02 3.84E-05
2880  3.8581449E-02 3.83E-05
2890  3.8416712E-02 3.82E-05
2900  3.8254339E-02 3.81E-05
2910  3.8093317E-02 3.80E-05
2920  3.7932859E-02 3.79E-05
2930  3.7774037E-02 3.78E-05
2940  3.7616090E-02 3.77E-05
2950  3.7458925E-02 3.76E-05
2960  3.7303637E-02 3.75E-05
2970  3.7149301E-02 3.74E-05
2980  3.6995171E-02 3.73E-05
2990  3.6843335E-02 3.73E-05
3000  3.6692941E-02 3.72E-05
3010  3.6542327E-02 3.71E-05
3020  3.6391603E-02 3.70E-05
3030  3.6242885E-02 3.69E-05
3040  3.6095412E-02 3.68E-05
3050  3.5946516E-02 3.67E-05
